	0	0.1	0.2	0.3	0.4	0.5	0.6	0.7	0.8	0.9	1
2	0.97	0.976	0.984	0.992	1.003	1.01	1.012	10.114	1.016	1.098	1.019
3	0.95	0.962	0.975	0.985	0.996	1.004	1.011	1.018	1.023	1.03	1.038
4	0.932	0.948	0.962	0.978	0.992	1.002	1.008	1.014	1.023	1.035	1.05
5	0.92	0.938	0.953	0.971	0.998	1	1.008	1.015	1.024	1.038	1.053
6	0.909	0.93	0.949	0.966	0.981	0.993	1.002	1.013	1.024	1.039	1.055
7	0.9	0.92	0.94	0.959	0.975	0.989	1	1.012	1.024	1.039	1.054
8	0.891	0.916	0.938	0.956	0.972	0.988	0.999	1.011	1.024	1.039	1.053
10	0.881	0.907	0.929	0.947	0.961	0.976	0.992	1.008	1.023	1.039	1.052
12	0.872	0.901	0.923	0.941	0.958	0.972	0.989	1.006	1.022	1.038	1.051
14	0.868	0.895	0.918	0.937	0.953	0.969	0.986	1.003	1.019	1.035	1.049
16	0.861	0.888	0.912	0.931	0.948	0.966	0.983	1	1.017	1.033	1.048
18	0.858	0.883	0.906	0.925	0.944	0.963	0.981	0.998	1.015	1.032	1.047
20	0.851	0.876	0.898	0.92	0.94	0.959	0.978	0.995	1.012	1.028	1.046
